Course Project 1 - Reproducible Research
…
From this information, we conclude that 2304 observations (lines of the data frame) do not contain the number of steps.

Now, to the imputation procedure. The method of choice was to use the values at the MeanDay data frame to provide a suggested value. At each interval without a number of steps, I changed the missing value to the mean of such interval. The new dataset was called imput.activity.

#Copying original dataset
imput.activity<-activity
#Filling NA's with the average number of steps for that interval
for(i in names(table(activity$interval))){
  imput.activity[which(ind & activity$interval==i),]$steps<-
    MeanDay[which(MeanDay$interval==i),]$`mean(steps)`
}
#New dataset
imput.activity

## # A tibble: 17,568 x 3
##     steps date       interval
##     <dbl> <date>        <int>
##  1 1.72   2012-10-01        0
##  2 0.340  2012-10-01        5
##  3 0.132  2012-10-01       10
##  4 0.151  2012-10-01       15
##  5 0.0755 2012-10-01       20
##  6 2.09   2012-10-01       25
##  7 0.528  2012-10-01       30
##  8 0.868  2012-10-01       35
##  9 0      2012-10-01       40
## 10 1.47   2012-10-01       45
## #  with 17,558 more rows
…
